module gitlab.com/gorib/storage

go 1.23.0

require (
	github.com/DATA-DOG/go-sqlmock v1.5.2
	github.com/jmoiron/sqlx v1.4.0
	github.com/stretchr/testify v1.10.0
	gitlab.com/gorib/criteria v0.0.0-20250224141747-7755bfaa022c
	gitlab.com/gorib/ptr v0.0.0-20250202074625-505b05714bce
)

require (
	github.com/davecgh/go-spew v1.1.1 // indirect
	github.com/pmezard/go-difflib v1.0.0 // indirect
	gopkg.in/yaml.v3 v3.0.1 // indirect
)
